"0","# outlier_1 <- 300.0"
"0","# data$oldpeak[data$oldpeak==outlier_1] <- NA"
"0","# "
"0","# outlier_2 <- 50.0"
"0","# data$oldpeak[data$oldpeak==outlier_2] <- NA"
"0","# "
"0","# outlier_3 <- 0.0"
"0","# data$oldpeak[data$oldpeak==outlier_3] <- NA"
"0","# "
"0","# outlier_4 <- 10.0"
"0","# data$oldpeak[data$oldpeak==outlier_4] <- NA"
"0","# "
"0","# ggplot(mapping=aes(x=data$oldpeak)) + geom_density()"
"0","# boxplot(data$oldpeak)"
"0",""
"0","outliers <- boxplot.stats(data$oldpeak)$out"
"0","print(outliers)"
"1","[1]"
"1","  10.0"
"1","  50.0"
"1"," 300.0"
"1","   6.2"
"1","   5.6"
"1","   4.4"
"1","
"
"0","data$oldpeak <- ifelse(data$oldpeak %in% outliers, NA, data$oldpeak)"
"0","boxplot(data$oldpeak)"
