"0","trestbps_x_ca_V <- violines(data2$trestbps, data2$ca, ""presion arterial en reposo"")"
"0","chol_x_ca_V <- violines(data2$chol, data2$ca, ""colesterol sérico en mg/dl"")"
"0","thalach_x_ca_V <- violines(data2$thalach, data2$ca, ""frecuencia cardíaca máxima alcanzada"")"
"0","oldpeak_x_ca_V <- violines(data2$oldpeak, data2$ca, ""ST inducido por ejercicio"", TRUE)"
"0",""
"0",""
"0","grid.arrange(trestbps_x_ca_V + ggtitle(""""),"
"0","             chol_x_ca_V + ggtitle(""""),"
"0","             thalach_x_ca_V + ggtitle(""""),"
"0","             oldpeak_x_ca_V + ggtitle(""""),"
"0","             nrow = 2,"
"0","             top = textGrob(""Resultados de exámenes frente a diferentes casos de fluoroscopía"","
"0","                            gp=gpar(fontsize=14))"
"0","             )"
"2","Error: stat_ydensity requires the following missing aesthetics: y
"
